65 40 48 64 24 77 86 50 70 31 3 100 93 
16 32 87 92 65 88 52 39 34 99 26 13 46 71 13 23 99 41 
97 40 63 49 77 6 40 31 17 28 34 
96 88 66 44 70 44 21 36 57 99 53 56 44 44 29 27 82 50 98 99 64 84 48 4 25 9 50 83 71 20 86 37 75 81 87 86 52 70 19 22 88 43 95 11 37 100 89 65 94 86 100 34 18 31 6 85 20 87 16 10 63 86 43 10 40 37 1 5 26 5 15 67 56 67 57 
80 8 96 74 43 62 89 21 18 85 4 8 28 67 24 32 2 42 62 88 86 1 58 95 68 33 25 1 72 47 69 94 89 49 3 69 23 90 24 72 76 50 52 21 85 5 66 20 68 71 3 36 71 25 60 69 24 18 31 48 51 47 27 21 43 47 12 52 3 46 6 34 53 94 9 35 16 7 12 27 57 89 77 31 1 99 89 97 22 82 94 70 
56 75 42 50 63 40 66 23 20 15 43 77 46 95 80 89 79 8 53 64 51 28 27 28 100 68 76 2 14 85 36 95 38 20 56 41 2 8 73 8 71 85 
89 12 46 89 82 
8 25 79 72 34 42 86 70 39 20 77 97 46 17 45 24 71 97 75 51 59 50 13 25 93 96 17 16 83 2 86 91 15 10 19 76 38 69 41 20 69 77 10 65 75 8 21 16 97 50 86 41 97 16 88 84 80 95 64 74 8 2 29 95 63 51 75 74 96 18 76 55 84 69 27 87 34 68 83 23 21 5 44 33 53 88 71 69 96 36 38 80 28 68 
63 14 27 92 57 63 78 89 28 25 62 51 65 86 93 85 18 27 25 43 
78 49 6 86 67 87 88 30 99 62 27 55 86 34 68 27 89 5 29 19 25 52 54 72 51 11 60 24 100 46 17 25 55 
83 13 88 55 81 61 2 32 75 32 97 3 83 41 50 35 48 33 23 88 44 2 94 100 28 19 90 99 79 34 43 58 11 15 44 13 95 22 38 46 67 75 48 29 49 89 2 25 80 32 87 9 74 56 30 
38 72 96 57 86 12 39 59 2 88 55 57 39 64 47 48 34 32 17 32 89 90 60 12 47 85 77 10 71 42 
41 22 4 82 12 25 55 73 81 96 19 40 83 100 62 62 43 9 90 87 46 34 21 97 5 91 46 23 38 99 9 48 28 89 67 13 65 30 31 22 72 97 79 15 91 10 53 73 98 26 69 95 25 55 62 77 98 22 56 31 5 34 3 62 67 
56 17 58 22 49 48 30 45 36 10 13 47 8 31 83 42 46 7 82 12 70 4 7 6 71 17 28 83 
29 56 50 41 73 14 68 43 69 53 6 98 16 72 49 27 64 20 85 1 21 45 30 85 6 32 65 14 61 1 5 35 47 89 46 26 26 14 76 85 46 19 91 
48 53 65 49 28 68 31 83 87 46 2 43 31 50 7 55 89 81 79 92 48 45 74 34 22 92 7 18 98 81 94 65 44 16 23 3 78 34 98 15 60 28 17 38 80 25 82 8 79 9 80 99 83 12 70 15 70 61 13 25 47 98 65 84 81 15 24 73 65 98 74 7 77 
6 85 60 46 62 63 94 46 91 87 32 29 83 78 31 58 3 7 78 82 99 87 21 63 64 91 55 76 61 7 53 17 27 28 61 93 44 38 37 46 34 43 39 58 40 51 32 19 30 5 36 75 53 45 77 1 80 55 83 99 52 71 8 19 59 59 59 23 81 54 32 41 27 37 68 77 26 67 100 74 9 25 37 53 91 
11 8 20 72 17 21 30 59 19 88 34 69 45 85 37 40 30 65 71 81 91 98 98 68 28 73 50 12 9 47 47 38 
30 37 27 60 51 87 54 90 61 85 23 78 55 67 59 42 88 53 6 98 17 23 43 60 30 29 26 61 98 21 12 25 31 10 76 69 10 78 14 60 76 26 59 63 5 22 60 96 86 
71 28 78 35 83 6 100 72 61 71 28 96 24 52 72 92 62 7 16 89 37 19 52 50 11 54 88 75 58 14 34 45 92 31 70 26 68 77 73 72 81 2 48 79 57 17 18 78 62 8 85 43 61 65 6 59 59 83 51 81 33 24 19 91 96 52 47 52 75 51 100 27 76 43 77 66 22 96 66 98 50 79 
15 83 75 84 13 4 14 72 56 60 86 85 41 4 39 73 71 7 57 37 4 58 76 95 41 96 98 97 42 95 20 11 87 6 10 21 9 69 19 30 77 62 54 96 15 36 82 88 5 61 89 20 30 65 64 23 85 89 38 58 5 75 72 24 17 13 33 31 82 18 
86 17 83 50 31 97 40 66 8 26 2 44 65 4 1 69 18 26 33 27 62 53 23 88 4 42 56 65 9 28 10 27 99 99 96 80 98 13 51 60 41 65 79 86 86 36 98 93 1 1 98 94 22 24 95 29 58 98 86 57 76 64 73 75 66 74 26 54 75 40 67 25 33 50 53 29 46 12 4 41 9 50 
26 1 44 58 91 63 70 93 93 31 94 99 15 84 25 6 55 81 41 58 49 36 67 60 56 28 85 90 15 
34 14 38 94 75 17 43 47 66 79 11 41 20 76 12 36 100 53 7 61 18 96 6 6 45 93 49 36 87 92 27 6 76 74 72 27 83 51 10 97 13 54 57 50 65 29 37 10 64 68 92 9 2 9 42 19 66 11 60 12 66 72 41 51 29 75 6 93 38 82 60 
83 58 57 13 21 100 16 33 82 68 77 3 56 64 79 18 4 72 92 89 57 1 39 15 69 70 8 2 29 71 31 50 43 7 20 57 32 45 8 34 20 35 71 77 6 69 58 81 86 91 14 62 63 75 12 47 10 65 99 58 12 34 80 34 24 64 60 70 93 58 13 36 76 95 3 10 7 7 93 17 73 27 99 85 74 50 74 44 49 
45 68 81 84 48 33 23 35 
4 76 23 96 66 37 20 35 42 16 92 54 84 77 89 86 95 7 5 4 74 30 100 84 67 64 4 63 10 25 88 92 16 80 85 41 96 55 55 88 18 7 45 82 36 95 69 68 58 67 
12 28 42 44 62 75 38 33 62 51 52 5 23 26 12 50 32 3 56 71 1 52 3 5 19 90 68 
5 44 
23 29 93 29 99 3 73 82 89 32 54 38 47 33 3 88 13 50 62 65 43 10 18 29 54 69 24 70 52 59 24 92 59 22 57 39 
9 8 42 10 91 29 23 55 24 74 54 1 10 54 67 50 58 69 2 79 84 93 17 15 60 91 43 21 38 31 84 66 70 25 31 24 75 38 84 66 76 62 44 52 6 9 79 8 22 79 32 47 69 75 4 59 92 10 92 98 65 5 40 42 15 17 42 40 68 44 76 66 54 41 56 14 93 67 62 14 
5 61 13 21 41 67 77 5 89 29 1 26 17 61 66 77 5 3 68 46 98 8 53 29 28 50 66 91 67 48 32 53 82 18 51 88 50 65 75 54 79 41 93 95 58 17 56 88 42 39 58 48 48 46 43 30 88 77 73 12 61 91 89 89 42 100 9 49 68 97 79 61 
57 55 34 1 71 6 97 44 73 74 74 63 30 80 19 72 30 53 13 51 54 5 16 47 83 87 31 11 34 68 3 63 6 71 64 44 60 26 15 43 42 84 6 1 25 92 89 77 23 84 73 53 10 48 38 66 55 48 35 20 79 34 22 95 9 40 52 92 22 9 85 64 48 76 59 81 97 58 94 29 89 21 1 85 68 6 7 58 72 44 4 48 58 65 67 
93 14 26 55 32 15 71 30 23 5 46 97 7 1 92 96 8 52 58 82 36 93 33 93 41 75 99 85 25 55 54 36 31 59 21 77 73 95 85 93 26 59 81 48 38 16 26 22 62 67 15 32 96 78 11 93 30 64 15 3 4 33 52 98 5 39 38 83 24 22 20 87 66 51 99 93 44 12 24 88 5 61 28 42 5 32 80 
98 70 13 22 46 30 100 51 94 35 40 57 84 60 30 4 44 41 1 38 19 83 18 95 71 55 44 25 35 10 3 54 57 13 79 6 15 53 41 97 92 75 64 42 6 57 15 3 25 73 29 36 100 6 1 77 97 51 27 11 17 53 74 39 49 32 11 85 2 4 85 85 43 97 65 68 72 52 47 36 33 51 62 27 91 60 100 36 76 97 13 89 29 13 51 93 59 
23 96 57 3 98 59 7 38 78 1 81 24 6 1 73 23 37 89 6 76 74 100 32 97 87 71 96 8 8 92 48 50 85 54 54 55 15 30 50 47 12 17 66 49 58 24 72 7 96 25 49 2 40 11 26 26 85 76 19 97 20 39 5 
82 50 76 30 74 72 56 16 66 7 38 96 39 61 56 30 60 66 7 7 25 33 76 86 26 47 37 86 71 75 37 90 95 64 23 73 84 47 69 48 66 100 53 37 84 29 39 95 24 4 79 95 39 88 16 77 61 88 96 52 79 28 74 50 12 16 52 35 8 53 
41 34 17 5 93 63 56 48 78 80 52 20 56 77 17 67 96 55 27 65 96 57 75 100 65 65 31 35 37 77 96 88 98 77 42 40 93 52 64 66 43 61 23 17 35 43 65 40 65 87 6 56 23 94 
14 59 85 36 48 47 28 87 76 68 4 26 2 64 29 72 3 87 20 38 87 27 97 91 65 75 81 93 86 41 62 79 12 19 
80 80 95 68 65 84 7 66 14 100 54 90 24 92 5 19 59 99 3 37 2 41 64 57 21 51 91 43 88 93 73 97 77 69 2 58 48 10 59 22 93 96 60 95 43 8 88 55 45 25 51 94 15 10 15 10 50 37 98 91 2 95 1 45 77 63 40 29 99 71 76 29 69 28 3 37 11 15 35 7 34 13 49 57 44 64 82 14 59 44 49 10 
50 61 67 58 9 19 19 30 14 51 59 69 50 14 33 73 36 3 
51 84 63 27 4 69 36 48 
44 95 61 11 70 46 71 50 58 90 33 23 60 79 39 65 97 46 45 66 46 67 40 42 56 65 86 53 14 42 53 11 60 81 94 68 52 66 45 77 8 83 33 75 63 44 16 28 80 19 23 71 98 22 
25 93 82 4 48 94 59 6 36 72 93 3 59 13 51 98 25 59 64 50 76 6 34 50 99 4 85 78 94 62 92 36 79 81 64 60 34 5 62 27 59 43 41 8 29 44 84 12 41 5 19 24 1 7 73 26 93 7 
67 70 100 81 40 48 22 85 91 49 
90 3 38 79 57 63 10 1 55 35 49 37 62 61 37 66 87 98 27 31 1 20 93 59 36 24 73 60 60 71 65 14 25 47 7 5 28 84 68 4 42 83 96 88 71 25 29 22 88 55 65 10 35 82 67 92 43 51 48 28 92 9 43 90 89 70 33 70 42 9 66 75 17 78 20 
44 51 53 49 87 8 100 92 32 78 85 4 41 44 6 25 44 73 23 34 67 88 7 80 69 77 57 95 74 10 48 53 82 79 14 63 32 10 50 77 39 10 38 22 71 51 22 10 37 41 30 60 58 49 58 49 64 35 99 85 90 14 14 92 3 19 66 70 66 93 87 89 49 79 39 91 38 51 47 30 65 77 13 27 49 88 88 79 93 
97 18 1 88 100 49 70 39 67 20 19 37 87 62 38 20 78 92 10 67 67 65 50 32 3 3 14 3 40 70 85 58 73 46 7 21 14 60 51 76 44 4 16 59 6 65 34 81 3 91 31 20 81 2 5 64 97 78 37 57 84 42 10 63 51 66 7 55 
39 6 77 93 65 14 29 79 37 2 8 21 7 66 96 10 36 35 96 74 84 66 11 28 96 84 26 79 93 51 72 39 92 90 55 4 37 67 10 49 58 61 71 30 8 69 45 31 92 58 82 22 49 80 74 61 91 91 3 69 78 22 98 42 49 93 83 8 11 8 24 17 42 27 3 
31 79 6 31 72 47 16 5 72 97 80 13 48 41 21 60 31 39 41 69 28 94 5 47 22 65 46 15 51 71 72 8 29 31 47 93 30 9 50 45 28 88 95 47 82 44 61 16 89 93 50 51 20 46 71 76 65 97 13 11 42 18 70 31 39 6 43 97 73 71 48 
91 38 41 66 56 13 60 37 90 97 1 78 100 86 2 82 30 52 72 32 28 52 40 86 79 96 72 60 79 12 62 67 88 10 
59 60 92 49 3 86 70 2 55 65 67 78 33 75 61 39 18 78 66 11 29 69 98 34 87 50 99 26 3 74 51 54 59 18 10 100 40 76 39 33 58 90 16 49 53 4 43 96 92 26 17 74 
75 30 99 53 
67 90 54 34 12 61 33 13 55 19 13 61 75 100 41 20 23 72 16 90 44 3 68 21 24 70 49 80 76 84 17 73 9 62 88 13 2 12 95 49 78 40 37 29 45 24 47 76 40 77 70 11 2 38 72 89 79 15 21 78 56 41 46 30 100 88 72 62 56 20 47 22 22 68 27 62 91 49 58 96 27 52 88 11 
66 95 26 88 37 56 97 13 87 77 30 44 50 25 18 42 47 38 34 71 25 58 70 39 74 61 91 
54 36 96 22 27 68 18 35 51 41 44 38 46 96 93 40 92 10 6 78 14 55 16 33 38 58 47 29 17 45 35 14 51 73 42 11 52 63 81 73 49 26 72 8 24 49 74 87 71 40 65 86 25 38 85 36 46 27 57 68 96 19 73 89 81 75 36 6 7 20 29 39 19 44 81 56 5 71 92 96 28 13 98 64 21 14 24 59 25 74 39 14 40 57 60 21 42 79 
93 52 95 67 92 92 73 33 65 69 43 78 43 94 75 51 88 59 64 88 84 49 88 41 80 22 70 19 54 1 60 93 40 40 39 4 83 8 11 1 85 49 76 46 
10 3 14 32 12 8 31 74 73 27 77 62 20 97 29 61 36 26 91 42 26 99 3 36 10 80 37 76 90 19 92 16 81 17 48 21 3 
62 74 34 35 13 100 2 26 38 52 97 42 64 74 11 41 42 73 63 56 71 74 58 87 
69 47 14 34 5 53 81 27 39 86 83 69 53 33 40 92 7 93 76 19 
6 2 8 48 100 23 26 90 53 21 90 84 87 29 54 56 62 3 9 87 58 37 61 11 12 85 5 37 2 76 38 98 26 67 15 11 88 51 68 22 61 71 88 14 43 19 89 95 12 62 63 76 28 48 48 16 30 64 38 65 15 62 83 68 1 70 46 3 23 100 75 2 25 100 28 81 68 73 48 39 93 84 
7 39 70 24 30 55 61 13 37 94 52 47 24 20 18 19 66 48 53 32 59 40 20 75 88 4 52 18 77 59 95 5 50 23 99 21 3 41 79 51 55 59 12 7 62 97 44 83 87 100 64 51 20 77 46 94 74 80 42 43 69 5 78 66 99 61 43 43 
63 14 27 34 5 22 20 60 60 80 30 61 74 39 19 20 31 79 21 78 37 46 21 68 71 66 82 44 62 9 24 67 77 50 64 89 33 82 37 12 65 61 41 77 22 43 63 52 89 13 64 40 82 87 37 75 68 52 76 83 73 25 13 7 3 76 36 39 21 27 37 91 43 50 54 42 66 25 53 29 32 69 25 21 56 51 10 6 
31 46 38 6 76 77 42 34 32 11 46 4 80 98 34 58 88 50 14 47 76 16 81 51 49 52 46 42 43 70 97 9 60 
17 96 75 40 77 75 79 7 70 90 25 79 56 5 71 81 66 91 1 83 71 99 22 5 82 84 72 63 26 45 47 19 87 86 52 35 20 95 92 81 55 96 99 42 85 19 47 100 83 6 34 61 40 64 25 64 26 40 62 72 62 24 66 52 76 25 
91 36 21 83 39 36 16 22 84 26 22 51 40 70 97 56 29 74 58 3 46 33 56 87 77 42 19 94 52 1 9 72 40 30 36 41 70 71 99 40 7 44 83 44 95 95 9 55 54 95 49 59 55 58 67 35 22 64 71 76 54 22 31 35 48 49 24 6 12 5 72 
100 80 12 99 49 54 3 5 43 85 100 42 57 29 22 85 24 21 89 11 70 19 62 77 77 16 25 61 34 50 68 42 63 88 76 95 7 61 41 67 5 22 45 50 76 44 33 26 96 40 81 66 46 92 63 63 63 83 16 51 47 93 96 34 36 90 39 48 72 59 12 21 56 52 87 63 21 89 52 86 99 64 9 17 36 92 11 50 26 13 27 32 43 32 25 10 71 72 
59 29 69 72 19 31 82 16 1 30 88 68 96 22 47 60 7 12 70 57 54 5 86 73 35 52 
98 43 17 90 17 88 68 44 11 62 35 96 58 6 50 71 35 74 77 82 58 42 94 57 7 38 14 29 10 63 34 18 69 47 
