3	567	13	description	21.03.2018 13:05
1	567	13	description1	21.03.2018 13:05
3	567	13	description2	21.03.2018 13:05
3	567	13	description3	21.03.2018 13:05
2	567	13	description4	21.03.2018 13:05
2	567	13	description5	21.03.2018 13:05